{
    "systems": {
        "mesa-perf-icl-01.local": {"switch": 1, "outlet": 1},
        "mesa-perf-icl-02.local": {"switch": 1, "outlet": 2},
        "mesa-perf-icl-03.local": {"switch": 1, "outlet": 3},
        "mesa-perf-kbl-01.local": {"switch": 1, "outlet": 4},
        "mesa-perf-kbl-02.local": {"switch": 1, "outlet": 5},
        "mesa-perf-kbl-03.local": {"switch": 1, "outlet": 6},
        "mesa-perf-tgl-01.local": {"switch": 1, "outlet": 7},
        "mesa-perf-tgl-02.local": {"switch": 2, "outlet": 1},
        "mesa-perf-tgl-03.local": {"switch": 2, "outlet": 2}
    },
    "switches": {
        "1": {
            "hostname": "192.168.1.250",
            "userid": "admin",
            "password": "1234"
        },
        "2": {
            "hostname": "192.168.1.251",
            "userid": "admin",
            "password": "1234"
        }
    }
}
